Exploration and Troubleshooting
…
2.3 Examples

Examples

# Newly created variables are available immediately  
mtcars %>% as_tibble() %>% mutate(  
  cyl2 = cyl * 2,  
  cyl4 = cyl2 * 2  
)  

In the first example, we can see the dataset mtcars is being used. Lets see what thats all about (i.e., lets test this bit of code)

mtcars %>% as_tibble()

## # A tibble: 32 x 11
##      mpg   cyl  disp    hp  drat    wt  qsec    vs    am  gear  carb
##    <dbl> <dbl> <dbl> <dbl> <dbl> <dbl> <dbl> <dbl> <dbl> <dbl> <dbl>
##  1  21       6  160    110  3.9   2.62  16.5     0     1     4     4
##  2  21       6  160    110  3.9   2.88  17.0     0     1     4     4
##  3  22.8     4  108     93  3.85  2.32  18.6     1     1     4     1
##  4  21.4     6  258    110  3.08  3.22  19.4     1     0     3     1
##  5  18.7     8  360    175  3.15  3.44  17.0     0     0     3     2
##  6  18.1     6  225    105  2.76  3.46  20.2     1     0     3     1
##  7  14.3     8  360    245  3.21  3.57  15.8     0     0     3     4
##  8  24.4     4  147.    62  3.69  3.19  20       1     0     4     2
##  9  22.8     4  141.    95  3.92  3.15  22.9     1     0     4     2
## 10  19.2     6  168.   123  3.92  3.44  18.3     1     0     4     4
## #  with 22 more rows

Now we can add in parts of the sample mutate() code one pair of expressions at a time:

# Newly created variables are available immediately  
mtcars %>% as_tibble() %>% mutate(  
  cyl2 = cyl * 2
)

## # A tibble: 32 x 12
##      mpg   cyl  disp    hp  drat    wt  qsec    vs    am  gear  carb  cyl2
##    <dbl> <dbl> <dbl> <dbl> <dbl> <dbl> <dbl> <dbl> <dbl> <dbl> <dbl> <dbl>
##  1  21       6  160    110  3.9   2.62  16.5     0     1     4     4    12
##  2  21       6  160    110  3.9   2.88  17.0     0     1     4     4    12
##  3  22.8     4  108     93  3.85  2.32  18.6     1     1     4     1     8
##  4  21.4     6  258    110  3.08  3.22  19.4     1     0     3     1    12
##  5  18.7     8  360    175  3.15  3.44  17.0     0     0     3     2    16
##  6  18.1     6  225    105  2.76  3.46  20.2     1     0     3     1    12
##  7  14.3     8  360    245  3.21  3.57  15.8     0     0     3     4    16
##  8  24.4     4  147.    62  3.69  3.19  20       1     0     4     2     8
##  9  22.8     4  141.    95  3.92  3.15  22.9     1     0     4     2     8
## 10  19.2     6  168.   123  3.92  3.44  18.3     1     0     4     4    12
## #  with 22 more rows

And the second pair of expressions:

# Newly created variables are available immediately  
mtcars %>% as_tibble() %>% mutate(  
  cyl2 = cyl * 2,  
  cyl4 = cyl2 * 2  
)

## # A tibble: 32 x 13
##      mpg   cyl  disp    hp  drat    wt  qsec    vs    am  gear  carb  cyl2  cyl4
##    <dbl> <dbl> <dbl> <dbl> <dbl> <dbl> <dbl> <dbl> <dbl> <dbl> <dbl> <dbl> <dbl>
##  1  21       6  160    110  3.9   2.62  16.5     0     1     4     4    12    24
##  2  21       6  160    110  3.9   2.88  17.0     0     1     4     4    12    24
##  3  22.8     4  108     93  3.85  2.32  18.6     1     1     4     1     8    16
##  4  21.4     6  258    110  3.08  3.22  19.4     1     0     3     1    12    24
##  5  18.7     8  360    175  3.15  3.44  17.0     0     0     3     2    16    32
##  6  18.1     6  225    105  2.76  3.46  20.2     1     0     3     1    12    24
##  7  14.3     8  360    245  3.21  3.57  15.8     0     0     3     4    16    32
##  8  24.4     4  147.    62  3.69  3.19  20       1     0     4     2     8    16
##  9  22.8     4  141.    95  3.92  3.15  22.9     1     0     4     2     8    16
## 10  19.2     6  168.   123  3.92  3.44  18.3     1     0     4     4    12    24
## #  with 22 more rows
…
# You can also use mutate() to remove variables and  
# modify existing variables  
mtcars %>% as_tibble() %>% mutate(  
  mpg = NULL,  
  disp = disp * 0.0163871 # convert to litres  
)

The first pair of expressions is mpg = NULL, which sounds like it will either fill the mpg column with the value NULL or remove the whole column. Lets find out

mtcars %>% as_tibble() %>% mutate(  
  mpg = NULL
)

## # A tibble: 32 x 10
##      cyl  disp    hp  drat    wt  qsec    vs    am  gear  carb
##    <dbl> <dbl> <dbl> <dbl> <dbl> <dbl> <dbl> <dbl> <dbl> <dbl>
##  1     6  160    110  3.9   2.62  16.5     0     1     4     4
##  2     6  160    110  3.9   2.88  17.0     0     1     4     4
##  3     4  108     93  3.85  2.32  18.6     1     1     4     1
##  4     6  258    110  3.08  3.22  19.4     1     0     3     1
##  5     8  360    175  3.15  3.44  17.0     0     0     3     2
##  6     6  225    105  2.76  3.46  20.2     1     0     3     1
##  7     8  360    245  3.21  3.57  15.8     0     0     3     4
##  8     4  147.    62  3.69  3.19  20       1     0     4     2
##  9     4  141.    95  3.92  3.15  22.9     1     0     4     2
## 10     6  168.   123  3.92  3.44  18.3     1     0     4     4
## #  with 22 more rows

It appears to be gone! Now we can add in the second pair of expressions and see what that does (ostensibly converts disp from gallons to litres):

mtcars %>% as_tibble() %>% mutate(  
  mpg = NULL,  
  disp = disp * 0.0163871 # convert to litres  
)

## # A tibble: 32 x 10
##      cyl  disp    hp  drat    wt  qsec    vs    am  gear  carb
##    <dbl> <dbl> <dbl> <dbl> <dbl> <dbl> <dbl> <dbl> <dbl> <dbl>
##  1     6  2.62   110  3.9   2.62  16.5     0     1     4     4
##  2     6  2.62   110  3.9   2.88  17.0     0     1     4     4
##  3     4  1.77    93  3.85  2.32  18.6     1     1     4     1
##  4     6  4.23   110  3.08  3.22  19.4     1     0     3     1
##  5     8  5.90   175  3.15  3.44  17.0     0     0     3     2
##  6     6  3.69   105  2.76  3.46  20.2     1     0     3     1
##  7     8  5.90   245  3.21  3.57  15.8     0     0     3     4
##  8     4  2.40    62  3.69  3.19  20       1     0     4     2
##  9     4  2.31    95  3.92  3.15  22.9     1     0     4     2
## 10     6  2.75   123  3.92  3.44  18.3     1     0     4     4
## #  with 22 more rows
…
